1 10 20
100 200 125
201 210 89
900 1000 174
391706 167077 443
221517 225272 368
672197 407711 509
420334 771045 509
708919 141529 509
629165 23927 509
602817 998511 525
615358 951300 525
886098 863937 432
155626 199268 383
235780 45906 443
48089 160837 383
29255 60056 340
492456 287528 449
464434 426582 444
544355 436574 470
832525 749704 468
937427 851702 476
865601 12599 525
827472 221632 509
328782 712184 509
968576 601027 525
828403 444124 509
151840 868102 525
550807 825190 509
452903 125748 449
354784 510207 449
57827 880525 525
183604 314759 443
876171 186088 525
835476 326492 509
708587 502860 509
322900 214970 443
97812 396352 443
794394 367763 509
185504 958287 525
459488 495235 444
735106 574798 509
962672 423116 525
895995 156999 525
247518 869709 525
920160 155828 525
635981 260036 509
306673 586717 470
25748 662066 509
605755 76110 470
103266 618046 470
340576 766531 509
479937 737761 509
903595 604249 525
424485 451266 400
867935 120277 525
486621 761657 509
471131 837183 509
288713 227258 443
131849 713324 509
817045 393969 509
689036 520018 509
305110 879308 525
196919 950856 525
202101 115028 383
232769 959150 525
467695 193718 449
756719 278304 509
858807 847339 419
396853 818433 509
378551 598118 470
965859 652114 525
464723 732309 509
213356 254428 443
627913 724237 504
439865 610178 470
133321 416346 449
837408 430026 509
674934 959757 525
853966 377054 525
491094 822266 509
845697 325936 525
711697 618769 509
616236 741160 509
240005 447500 449
947905 64519 525
1953 854434 525
442306 264916 449
717158 355658 509
385094 884159 525
529666 719895 509
59358 725971 509
166243 967911 525
10335 922678 525
195396 891096 525
762906 40175 509
907375 555259 525
211611 20067 383
355235 688926 509
311590 561718 470
557557 674957 509
526612 470459 470
413244 870369 525
833411 505031 509
400924 867402 525
797284 398007 509
691455 156682 509
539042 248103 470
215907 625787 470
538101 13685 470
104810 9918 351
779612 857899 525
226792 342985 443
187856 494991 449
389583 216261 443
480020 992917 525
608428 775251 509
38645 561429 470
242135 172977 443
789220 670299 504
669205 897215 525
753260 683844 504
949109 479008 525
426316 14101 449
205248 738962 509
279228 351182 441
603839 540816 452
683128 792002 504
975174 123429 525
16458 759249 509
506517 719869 509
466882 658614 509
29084 282052 443
184107 645476 509
896938 340516 525
530882 136681 470
360850 440467 449
361310 421566 449
104283 927960 525
768950 805874 468
932835 608667 525
500237 665125 509
392013 32002 443
957226 954450 383
382948 430692 449
657252 270747 509
164799 275660 443
793012 788301 437
138472 688545 509
149413 823876 509
186314 239430 443
341299 242241 407
900308 228100 525
168686 534581 470
173046 890229 525
682528 696160 442
87941 624841 470
259486 632451 509
259530 315552 407
776899 250319 509
37982 535994 470
269348 53683 443
719447 437443 509
379028 648207 509
965266 442397 525
112246 81786 354
310217 675575 509
298819 584531 470
629280 415824 509
501759 780125 509
283532 33262 443
281348 567251 470
746794 206852 509
563925 883743 525
31100 680152 509
835869 376992 509
286574 923389 525
303239 806106 509
828216 980212 525
329220 659657 509
15103 741232 509
806463 626800 504
291564 806460 509
905341 918733 476
274154 99426 443
274187 695383 509
958443 330812 525
882671 981354 507
489295 769663 509
306528 999674 525
521341 128030 470
45866 386668 443
768385 83453 509
912677 278384 525
810785 644221 504
780263 463711 509
615251 367858 470
821851 781763 468
433437 794295 509
618741 725240 509
857102 240978 525
292071 453245 449
559794 24573 470
834845 149012 509
